…
```
## `summarise()` has grouped output by 'topic'. You can override using the
## `.groups` argument.
```

``` r
evals2sex_avg
```

```
## # A tibble: 159 × 5
## # Groups:   topic [54]
##    topic         sex        avg_fam avg_gen gen_eff
##    <chr>         <fct>        <dbl>   <dbl>   <dbl>
##  1 Acne Product  female        3.32   1       1    
##  2 Acne Product  male          2.41   1.09    1.09 
##  3 Acne Product  non binary    2.4   -0.4     0.4  
##  4 Board Games   female        3.74  -0.34    0.34 
##  5 Board Games   male          3.35  -0.421   0.421
##  6 Board Games   non binary    3.25   0       0    
##  7 Books Edition female        3.5    0.333   0.333
##  8 Books Edition male          2      0       0    
##  9 Books Edition non binary    1     -3       3    
## 10 Bottled Water female        3.86   0.214   0.214
## # ℹ 149 more rows
```
…
--- end of non valid ---

## Bugfixing


``` r
total_df |> 
  group_by(topic, institute, subj) |> 
  count()
```

```
## # A tibble: 998 × 4
## # Groups:   topic, institute, subj [998]
##    topic        institute                                   subj               n
##    <chr>        <chr>                                       <chr>          <int>
##  1 Acne Product Faculty of Fine Art, Music and Design       Department of…     1
##  2 Acne Product Faculty of Humanities                       Department of…    17
##  3 Acne Product Faculty of Humanities                       Department of…    11
##  4 Acne Product Faculty of Humanities                       Department of…     2
##  5 Acne Product Faculty of Humanities                       Department of…     1
##  6 Acne Product Faculty of Mathematics and Natural Sciences Department of…     3
##  7 Acne Product Faculty of Mathematics and Natural Sciences Department of…     1
##  8 Acne Product Faculty of Mathematics and Natural Sciences Department of…    24
##  9 Acne Product Faculty of Mathematics and Natural Sciences Department of…    54
## 10 Acne Product Faculty of Mathematics and Natural Sciences Department of…     9
## # ℹ 988 more rows
```
